﻿keys,en,zh
language,繁,EN
login,Login,登入
logout,Log Out,登出
loginSuccess,Login Success!,登入成功!
loginFail,Login Fail!,登入失敗!\n請檢查你的帳戶或密碼…
confirm,OK,確認
memberId,Member ID,會員編號
password,Password,密碼
confirmPassword,Confirm Password,確認密碼
rememberMe,Remember Me,記住我
newMember,New Member? ,新朋友? 
registration,Registration,註冊
name,Name,姓名
contactNum,Contact No.,聯絡電話
phone,Phone number,電話
game,Game,遊戲
matchingGame,Matching Game,配對遊戲
puzzleGame,Number Puzzle Game,數字拼圖遊戲
myPhoto,My Photo,我的相片
leave,Leaving?,是否離開?
yes,Yes,是
no,No,否
gameRule,Game Rule,遊戲玩法
matchingGameInstructionA,1 minutes game\nChoose a pair of cards with the same number and color\n\nCorrect: get 1 scores\nWrong: decrease 0 scores\n\n>15 scores = 12 coins\n10-15 scores = 9 coins\n5-10 scores = 6 coins\n0-15 scores = 3 coins,限時一分鐘\n選擇相同數字及顏色的卡\n\n正確: 獲得1分\n錯誤: 不扣分\n\n15分以上 = 12個金幣\n10-15分 = 9個金幣\n5-10分 = 6個金幣\n0-5分 = 3個金幣
matchingGameInstructionB,1 minutes game\nChoose a pair of cards with the same number and color\n\nCorrect: get 2 scores\nWrong: decrease 1 scores\n\n>40 scores = 20 coins\n25-40 scores = 15 coins\n10-25 scores = 10 coins\n0-10 scores = 5 coins,限時一分鐘\n選擇相同數字及顏色的卡\n\n正確: 獲得2分\n錯誤: 扣1分\n\n40分以上 = 20個金幣\n25-40分 = 15個金幣\n10-25分 = 10個金幣\n0-10分 = 5個金幣
matchingGameInstructionC,1 minutes game\nChoose a pair of cards with the same number and color\n\nCorrect: get 3 scores\nWrong: decrease 2 scores\n\n>50 scores = 40 coins\n30-50 scores = 30 coins\n15-30 scores = 20 coins\n0-15 scores = 10 coins,限時一分鐘\n選擇相同數字及顏色的卡\n\n正確: 獲得3分\n錯誤: 扣2分\n\n50分以上 = 40個金幣\n30-50分 = 30個金幣\n15-30分 = 20個金幣\n0-15分 = 10個金幣
matchingGameInstruction1,1 minutes game\nChoose a pair of cards with the same number and color\n\nCorrect: get corresponding number of scores\nWrong: decrease 1 scores\n\n>225 scores = 12 coins\n150-225 scores = 9 coins\n75-150 scores = 6 coins\n0-75 scores = 3 coins,限時一分鐘\n選擇相同數字及顏色的卡\n\n正確: 獲得卡上的分數\n錯誤: 扣1分\n\n225分以上 = 12個金幣\n150-225分 = 9個金幣\n75-150分 = 6個金幣\n0-75分 = 3個金幣
matchingGameInstruction2,1 minutes game\nChoose a pair of cards with the same number and color\n\nCorrect: get corresponding number of scores\nWrong: decrease 5 scores\n\n>300 scores = 20 coins\n200-300 scores = 15 coins\n100-200 scores = 10 coins\n 0-100 scores = 5 coins,限時一分鐘\n選擇相同數字及顏色的卡\n\n正確: 獲得卡上的分數\n錯誤: 扣5分\n\n300分以上 = 20個金幣\n200-300分 = 15個金幣\n100-200分 = 10個金幣\n0-100分 = 5個金幣
matchingGameInstruction3,1 minutes game\nChoose a pair of cards with the same number and color\n\nCorrect: get corresponding number of scores\nWrong: decrease 10 scores\n\n>450 scores = 40 coins\n300-450 scores = 30 coins\n150-300 scores = 20 coins\n0-150 scores = 10 coins,限時一分鐘\n選擇相同數字及顏色的卡\n\n正確: 獲得卡上的分數\n錯誤: 扣10分\n\n450分以上 = 40個金幣\n300-450分 = 30個金幣\n150-300分 = 20個金幣\n0-150分 = 10個金幣
start,START,開始
timesUp,Times Up!,時間夠!
youHaveGot,You have got,你獲得金幣
coins,coins,個
coinsShow,          Coins:,          金幣:
collect,Collect,領取
timeLeft,Time Left:,剩餘時間:
score,Score:,分數:
hello,Hello!,你好!
rewards,Rewards,獎勵
getRewardsCompleted,Completed,兌換完成
getRewards,Get rewards,兌換獎勵
back,Back,返回
download,Download,下載圖片
difficulty,Difficulty,選擇難度
game1Lv1,Simple,簡單
game1Lv2,Normal,普通
game1Lv3,Hard,困難
puzzleGameInstruction1,1 minutes game\nChoose the correct numbers or symbols to finish the equation\n\nCorrect: get 1 scores\nWrong: decrease 0 scores\n\n>15 scores = 12 coins\n10-15 scores = 9 coins\n5-10 scores = 6 coins\n0-15 scores = 3 coins,限時一分鐘\n選擇合適的數字或符號使算式成立\n\n正確: 獲得1分\n錯誤: 不扣分\n\n15分以上 = 12個金幣\n10-15分 = 9個金幣\n5-10分 = 6個金幣\n0-5分 = 3個金幣
puzzleGameInstruction2,1 minutes game\nChoose the correct numbers or symbols to finish the equation\n\nCorrect: get 2 scores\nWrong: decrease 1 scores\n\n>40 scores = 20 coins\n25-40 scores = 15 coins\n10-25 scores = 10 coins\n0-10 scores = 5 coins,限時一分鐘\n選擇合適的數字或符號使算式成立\n\n正確: 獲得2分\n錯誤: 扣1分\n\n40分以上 = 20個金幣\n25-40分 = 15個金幣\n10-25分 = 10個金幣\n0-10分 = 5個金幣
puzzleGameInstruction3,1 minutes game\nChoose the correct numbers or symbols to finish the equation\n\nCorrect: get 3 scores\nWrong: decrease 2 scores\n\n>50 scores = 40 coins\n30-50 scores = 30 coins\n15-30 scores = 20 coins\n0-15 scores = 10 coins,限時一分鐘\n選擇合適的數字或符號使算式成立\n\n正確: 獲得3分\n錯誤: 扣2分\n\n50分以上 = 40個金幣\n30-50分 = 30個金幣\n15-30分 = 20個金幣\n0-15分 = 10個金幣
